<?xml version="1.0" encoding="UTF-8"?>
<svg xmlns="http://www.w3.org/2000/svg" xmlns:xlink="http://www.w3.org/1999/xlink" width="60px" height="30px" viewBox="0 0 60 30" version="1.1">
<g id="surface1">
<path style=" stroke:none;fill-rule:nonzero;fill:rgb(73.333333%,73.333333%,73.333333%);fill-opacity:1;" d="M 5.695312 0.148438 C 3.203125 0.761719 1.191406 2.605469 0.324219 5.097656 L 0.0507812 5.890625 L 0.0507812 24.109375 L 0.34375 24.941406 C 0.511719 25.394531 0.691406 25.792969 0.75 25.8125 C 0.808594 25.832031 0.925781 25.5625 1.023438 25.226562 C 2.03125 21.523438 4.316406 17.59375 7.171875 14.632812 C 11.714844 9.929688 17.371094 7.265625 23.988281 6.722656 C 26.1875 6.542969 28.925781 6.761719 31.328125 7.289062 C 34.847656 8.058594 38.867188 9.96875 41.636719 12.1875 C 41.988281 12.464844 42.257812 12.710938 42.238281 12.742188 C 42.207031 12.761719 41.792969 12.722656 41.320312 12.652344 C 40.011719 12.464844 37.035156 12.496094 35.664062 12.703125 C 33.261719 13.078125 31.4375 13.644531 29.308594 14.691406 C 24.058594 17.277344 20.15625 21.863281 18.433594 27.476562 C 18.1875 28.265625 17.832031 29.753906 17.832031 29.960938 C 17.832031 29.980469 25.390625 30 34.628906 30 L 51.429688 30 L 51.429688 29.792969 C 51.429688 29.367188 51.113281 27.445312 50.875 26.4375 C 49.824219 21.882812 47.566406 17.78125 44.167969 14.257812 C 43.597656 13.652344 43.171875 13.167969 43.222656 13.167969 C 43.269531 13.167969 43.792969 13.308594 44.375 13.464844 C 49.300781 14.863281 53.546875 18.019531 56.394531 22.394531 C 56.957031 23.257812 57.988281 25.265625 58.238281 25.96875 C 58.304688 26.167969 58.414062 26.328125 58.472656 26.308594 C 58.648438 26.246094 59.191406 24.839844 59.359375 24.011719 C 59.496094 23.316406 59.507812 22.1875 59.488281 14.652344 C 59.449219 5.148438 59.488281 5.710938 58.777344 4.207031 C 57.863281 2.265625 56.039062 0.753906 53.949219 0.207031 C 53.164062 0 53.164062 0 29.714844 0.0117188 C 10.117188 0.0195312 6.167969 0.0390625 5.695312 0.148438 Z M 5.695312 0.148438 "/>
</g>
</svg>
